Práctica guiada - Clasificación con Regresión logística con remuestreo espacial
…
A modo de inspección visual

water_train

## # A tibble: 41,094 × 10
##    row_id lat_deg lon_deg status_id water_source     water_tech    facility_type
##     <dbl>   <dbl>   <dbl> <fct>     <fct>            <fct>         <fct>        
##  1 252544    9.45   -12.5 n         <NA>             Hand Pump     <NA>         
##  2  36063    8.48   -13.2 n         <NA>             Hand Pump - … <NA>         
##  3  36291    8.39   -13.3 n         <NA>             <NA>          <NA>         
##  4  34838    8.28   -13.2 n         <NA>             Rope and Buc… <NA>         
##  5  36468    8.29   -13.2 n         <NA>             Rope and Buc… <NA>         
##  6  35939    8.42   -13.3 n         <NA>             Hydram        <NA>         
##  7  35149    8.38   -13.3 n         <NA>             <NA>          <NA>         
##  8  36779    8.34   -13.2 n         Borehole         Mechanized P… Improved     
##  9  35375    8.47   -13.2 n         Protected Shall… Hand Pump     Improved     
## 10  36789    8.34   -13.2 n         <NA>             <NA>          <NA>         
## # … with 41,084 more rows, and 3 more variables: install_year <dbl>,
## #   installer <fct>, pay <fct>

water_test 

## # A tibble: 13,699 × 10
##    row_id lat_deg lon_deg status_id water_source     water_tech    facility_type
##     <dbl>   <dbl>   <dbl> <fct>     <fct>            <fct>         <fct>        
##  1  36202    8.37   -13.2 y         <NA>             Rope and Buc… <NA>         
##  2  36006    8.38   -13.2 y         <NA>             Hydram        <NA>         
##  3  34977    8.47   -13.2 y         Unprotected Spr… <NA>          Unimproved   
##  4  36340    8.31   -13.2 y         <NA>             Rope and Buc… <NA>         
##  5  34645    8.47   -13.2 y         Undefined Shall… <NA>          Unknown      
##  6  35418    8.41   -13.3 y         Borehole         <NA>          Improved     
##  7  35960    8.40   -13.3 y         Borehole         Mechanized P… Improved     
##  8  35913    8.47   -13.2 n         <NA>             Hand Pump     <NA>         
##  9  35430    8.47   -13.2 y         <NA>             Hand Pump - … <NA>         
## 10  36125    8.46   -13.2 y         Undefined Shall… <NA>          Unknown      
## # … with 13,689 more rows, and 3 more variables: install_year <dbl>,
## #   installer <fct>, pay <fct>
…
Tengo un accuracy del modelo, igual a 87.4 %, para una clasificación binaria, es un valor aceptable. El área bajo la curva es de 0.90, y es un valor muy bueno también.

Predicciones del modelo

Las dos columnas que interesa mirar son:

.pred_class: es la clase predicha por el modelo

status_id: es la clase verdadera.

final_fitted %>%
  collect_predictions()

## # A tibble: 13,699 × 7
##    id               .pred_n .pred_y  .row .pred_class status_id .config         
##    <chr>              <dbl>   <dbl> <int> <fct>       <fct>     <fct>           
##  1 train/test split 0.0172    0.983     2 y           y         Preprocessor1_M…
##  2 train/test split 0.127     0.873     4 y           y         Preprocessor1_M…
##  3 train/test split 0.0112    0.989     8 y           y         Preprocessor1_M…
##  4 train/test split 0.0264    0.974    10 y           y         Preprocessor1_M…
##  5 train/test split 0.00414   0.996    11 y           y         Preprocessor1_M…
##  6 train/test split 0.109     0.891    12 y           y         Preprocessor1_M…
##  7 train/test split 0.160     0.840    13 y           y         Preprocessor1_M…
##  8 train/test split 0.106     0.894    14 y           n         Preprocessor1_M…
##  9 train/test split 0.124     0.876    17 y           y         Preprocessor1_M…
## 10 train/test split 0.00476   0.995    28 y           y         Preprocessor1_M…
## # … with 13,689 more rows
…
