Practica guiada 2 - Tunning de árboles
…
Veamos los posibles valores en esta grilla.

tree_grid <- grid_regular(cost_complexity(), tree_depth(), min_n(), levels = 4)

tree_grid

## # A tibble: 64 × 3
##    cost_complexity tree_depth min_n
##              <dbl>      <int> <int>
##  1    0.0000000001          1     2
##  2    0.0000001             1     2
##  3    0.0001                1     2
##  4    0.1                   1     2
##  5    0.0000000001          5     2
##  6    0.0000001             5     2
##  7    0.0001                5     2
##  8    0.1                   5     2
##  9    0.0000000001         10     2
## 10    0.0000001            10     2
## # … with 54 more rows
…
## # Tuning results
## # 3-fold cross-validation 
## # A tibble: 3 × 4
##   splits            id    .metrics           .notes          
##   <list>            <chr> <list>             <list>          
## 1 <split [252/127]> Fold1 <tibble [192 × 7]> <tibble [0 × 1]>
## 2 <split [253/126]> Fold2 <tibble [192 × 7]> <tibble [0 × 1]>
## 3 <split [253/126]> Fold3 <tibble [192 × 7]> <tibble [0 × 1]>

Predicciones en TRAIN

collect_metrics(tree_rs)

## # A tibble: 192 × 9
##    cost_complexity tree_depth min_n .metric .estimator  mean     n std_err
##              <dbl>      <int> <int> <chr>   <chr>      <dbl> <int>   <dbl>
##  1    0.0000000001          1     2 mae     standard   5.44      3  0.276 
##  2    0.0000000001          1     2 rmse    standard   7.23      3  0.277 
##  3    0.0000000001          1     2 rsq     standard   0.395     3  0.0420
##  4    0.0000001             1     2 mae     standard   5.44      3  0.276 
##  5    0.0000001             1     2 rmse    standard   7.23      3  0.277 
##  6    0.0000001             1     2 rsq     standard   0.395     3  0.0420
##  7    0.0001                1     2 mae     standard   5.44      3  0.276 
##  8    0.0001                1     2 rmse    standard   7.23      3  0.277 
##  9    0.0001                1     2 rsq     standard   0.395     3  0.0420
## 10    0.1                   1     2 mae     standard   5.44      3  0.276 
## # … with 182 more rows, and 1 more variable: .config <fct>

tree_rs %>%
  collect_metrics(summarize=FALSE)

## # A tibble: 576 × 8
##    id    cost_complexity tree_depth min_n .metric .estimator .estimate .config  
##    <chr>           <dbl>      <int> <int> <chr>   <chr>          <dbl> <fct>    
##  1 Fold1    0.0000000001          1     2 rmse    standard       6.85  Preproce…
##  2 Fold1    0.0000000001          1     2 rsq     standard       0.328 Preproce…
##  3 Fold1    0.0000000001          1     2 mae     standard       4.94  Preproce…
##  4 Fold2    0.0000000001          1     2 rmse    standard       7.07  Preproce…
##  5 Fold2    0.0000000001          1     2 rsq     standard       0.472 Preproce…
##  6 Fold2    0.0000000001          1     2 mae     standard       5.51  Preproce…
##  7 Fold3    0.0000000001          1     2 rmse    standard       7.77  Preproce…
##  8 Fold3    0.0000000001          1     2 rsq     standard       0.386 Preproce…
##  9 Fold3    0.0000000001          1     2 mae     standard       5.89  Preproce…
## 10 Fold1    0.0000001             1     2 rmse    standard       6.85  Preproce…
## # … with 566 more rows
…
final_rs %>%
  collect_metrics()

## # A tibble: 2 × 4
##   .metric .estimator .estimate .config             
##   <chr>   <chr>          <dbl> <fct>               
## 1 rmse    standard       4.80  Preprocessor1_Model1
## 2 rsq     standard       0.718 Preprocessor1_Model1

Podemos ver las predicciones del modelo en TEST mediante la función collect_predictions().

final_rs %>%
  collect_predictions()

## # A tibble: 127 × 5
##    id               .pred  .row  medv .config             
##    <chr>            <dbl> <int> <dbl> <fct>               
##  1 train/test split  30.8     1  24   Preprocessor1_Model1
##  2 train/test split  35.4     5  36.2 Preprocessor1_Model1
##  3 train/test split  19.9     7  22.9 Preprocessor1_Model1
##  4 train/test split  17.4     8  27.1 Preprocessor1_Model1
##  5 train/test split  17.4     9  16.5 Preprocessor1_Model1
##  6 train/test split  17.4    11  15   Preprocessor1_Model1
##  7 train/test split  14.3    23  15.2 Preprocessor1_Model1
##  8 train/test split  14.3    25  15.6 Preprocessor1_Model1
##  9 train/test split  14.3    27  16.6 Preprocessor1_Model1
## 10 train/test split  19.8    32  14.5 Preprocessor1_Model1
## # … with 117 more rows
…
